^C:\USERS\ЖИРНЫЙ КОТ\SOURCE\REPOS\HELLOWORLD\DEBUG\HELLOWORLD.OBJ
C:\USERS\Жирный Кот\SOURCE\REPOS\HELLOWORLD\DEBUG\HELLOWORLD.EXE
C:\USERS\Жирный Кот\SOURCE\REPOS\HELLOWORLD\DEBUG\HELLOWORLD.ILK
C:\USERS\ЖИРНЫЙ КОТ\SOURCE\REPOS\HELLOWORLD\DEBUG\HELLOWORLD.PDB
